\relax 
\gdef \LT@i {\LT@entry 
    {1}{61.8834pt}\LT@entry 
    {1}{97.35826pt}\LT@entry 
    {1}{140.0374pt}\LT@entry 
    {1}{44.63712pt}}
\@writefile{toc}{\contentsline {section}{\numberline {1}Wymagania systemowe}{1}}
\@writefile{toc}{\contentsline {section}{\numberline {2}Architektura i u\IeC {\.z}yte technologie}{1}}
\gdef \LT@ii {\LT@entry 
    {1}{27.67972pt}\LT@entry 
    {1}{140.0374pt}\LT@entry 
    {1}{154.26378pt}\LT@entry 
    {1}{57.00119pt}}
\@writefile{toc}{\contentsline {section}{\numberline {3}Biblioteki}{2}}
\@writefile{toc}{\contentsline {section}{\numberline {4}Instrukcja instalacji}{2}}
\@writefile{lof}{\contentsline {figure}{\numberline {1}{\ignorespaces Flagi instalacyjne}}{3}}
\@writefile{lof}{\contentsline {figure}{\numberline {2}{\ignorespaces Wyb\IeC {\'o}r emulatora}}{4}}
\@writefile{lof}{\contentsline {figure}{\numberline {3}{\ignorespaces Zaawansowane opcje emulatora}}{5}}
\@writefile{lof}{\contentsline {figure}{\numberline {4}{\ignorespaces Ustawienie pozycji GPS}}{6}}
\@writefile{toc}{\contentsline {section}{\numberline {5}Instrukcja u\IeC {\.z}ycia}{6}}
\@writefile{toc}{\contentsline {subsection}{\numberline {5.1}Ekran g\IeC {\l }\IeC {\'o}wny}{6}}
\@writefile{toc}{\contentsline {subsection}{\numberline {5.2}Dodanie nowego wydarzenia / Edycja}{6}}
\@writefile{toc}{\contentsline {subsection}{\numberline {5.3}Mapa}{7}}
\@writefile{toc}{\contentsline {subsection}{\numberline {5.4}Miejsca}{7}}
\@writefile{toc}{\contentsline {subsection}{\numberline {5.5}Notyfikacje}{7}}
\@writefile{toc}{\contentsline {subsection}{\numberline {5.6}Ustawienia}{7}}
\gdef \LT@iii {\LT@entry 
    {1}{27.67972pt}\LT@entry 
    {1}{42.02107pt}\LT@entry 
    {1}{296.52756pt}}
\@writefile{toc}{\contentsline {subsection}{\numberline {5.7}Plan dnia}{8}}
\@writefile{toc}{\contentsline {section}{\numberline {6}Odst\IeC {\k e}pstwa od specyfikacji wymaga\IeC {\'n}}{8}}
\@writefile{toc}{\contentsline {section}{\numberline {7}Lista u\IeC {\.z}ytych skr\IeC {\'o}t\IeC {\'o}w}{8}}
